{
    "openapi": "3.0.0",
    "info": {
        "title": "Laravel OpenApi Progetto Restaurant Reservation",
        "description": "L5 Swagger OpenApi description",
        "contact": {
            "email": "martina.canzoniere8@gmail.com"
        },
        "license": {
            "name": "Apache 2.0",
            "url": "http://www.apache.org/licenses/LICENSE-2.0.html"
        },
        "version": "1.0.0"
    },
    "servers": [
        {
            "url": "http://localhost:8000/api",
            "description": "Restaurant Reservation API Server"
        }
    ],
    "paths": {
        "/customers": {
            "get": {
                "tags": [
                    "Customer Controller"
                ],
                "summary": "Get a list of customers",
                "description": "Retrieve a list of customers with optional filtering and pagination.",
                "operationId": "30ce4124bc07a0d013b69974ff225a5c",
                "parameters": [
                    {
                        "name": "order_by",
                        "in": "query",
                        "description": "Sort the results by a specific field",
                        "schema": {
                            "type": "string"
                        }
                    },
                    {
                        "name": "order_dir",
                        "in": "query",
                        "description": "Sort direction ('asc' or 'desc')",
                        "schema": {
                            "type": "string",
                            "enum": [
                                "asc",
                                "desc"
                            ]
                        }
                    },
                    {
                        "name": "filter_by",
                        "in": "query",
                        "description": "Filter customers by name or surname",
                        "schema": {
                            "type": "string"
                        }
                    },
                    {
                        "name": "page",
                        "in": "query",
                        "description": "Page number for pagination",
                        "schema": {
                            "type": "integer"
                        }
                    },
                    {
                        "name": "page_length",
                        "in": "query",
                        "description": "Number of items per page",
                        "schema": {
                            "type": "integer"
                        }
                    }
                ],
                "responses": {
                    "200": {
                        "description": "Successful response",
                        "content": {
                            "application/json": {
                                "schema": {
                                    "properties": {
                                        "message": {
                                            "type": "string",
                                            "example": "Customers found successfully."
                                        },
                                        "data": {
                                            "type": "array",
                                            "items": {
                                                "$ref": "#/components/schemas/Customer"
                                            }
                                        }
                                    },
                                    "type": "object"
                                }
                            }
                        }
                    },
                    "404": {
                        "description": "Not Found",
                        "content": {
                            "application/json": {
                                "schema": {
                                    "properties": {
                                        "message": {
                                            "type": "string",
                                            "example": "Customers not found, please add a customer to the list."
                                        }
                                    },
                                    "type": "object"
                                }
                            }
                        }
                    },
                    "500": {
                        "description": "Unexpected error"
                    }
                }
            },
            "post": {
                "tags": [
                    "Customer Controller"
                ],
                "summary": "Create a new customer",
                "description": "Create a new customer with the provided information.",
                "operationId": "8350a1a36d2b5522ea4158253eff28a1",
                "requestBody": {
                    "required": true,
                    "content": {
                        "application/json": {
                            "schema": {
                                "$ref": "#/components/schemas/CustomerCrudRequest"
                            }
                        }
                    }
                },
                "responses": {
                    "201": {
                        "description": "Successful response",
                        "content": {
                            "application/json": {
                                "schema": {
                                    "properties": {
                                        "message": {
                                            "type": "string",
                                            "example": "Customer created successfully."
                                        },
                                        "data": {
                                            "$ref": "#/components/schemas/Customer"
                                        }
                                    },
                                    "type": "object"
                                }
                            }
                        }
                    },
                    "500": {
                        "description": "Unexpected error."
                    }
                }
            }
        },
        "/customers/{customer_id}": {
            "get": {
                "tags": [
                    "Customer Controller"
                ],
                "summary": "Get customer by ID",
                "description": "Retrieve customer information by ID.",
                "operationId": "9c932c0d7809bcbe51b0fc93c08984fa",
                "parameters": [
                    {
                        "name": "customer_id",
                        "in": "path",
                        "description": "ID of the customer to retrieve",
                        "required": true,
                        "schema": {
                            "type": "string",
                            "format": "uuid"
                        }
                    }
                ],
                "responses": {
                    "200": {
                        "description": "Successful response",
                        "content": {
                            "application/json": {
                                "schema": {
                                    "properties": {
                                        "message": {
                                            "type": "string",
                                            "example": "Selected customer found successfully."
                                        },
                                        "data": {
                                            "$ref": "#/components/schemas/Customer"
                                        }
                                    },
                                    "type": "object"
                                }
                            }
                        }
                    },
                    "404": {
                        "description": "Not Found",
                        "content": {
                            "application/json": {
                                "schema": {
                                    "properties": {
                                        "message": {
                                            "type": "string",
                                            "example": "Customer not found, please insert another customer id."
                                        }
                                    },
                                    "type": "object"
                                }
                            }
                        }
                    },
                    "500": {
                        "description": "Unexpected error."
                    }
                }
            },
            "put": {
                "tags": [
                    "Customer Controller"
                ],
                "summary": "Update customer by ID",
                "description": "Update a customer's information by ID.",
                "operationId": "c02a01630baddeddd7b9ea740be0c636",
                "parameters": [
                    {
                        "name": "customer_id",
                        "in": "path",
                        "description": "ID of the customer to update",
                        "required": true,
                        "schema": {
                            "type": "string",
                            "format": "uuid"
                        }
                    }
                ],
                "requestBody": {
                    "required": true,
                    "content": {
                        "application/json": {
                            "schema": {
                                "$ref": "#/components/schemas/CustomerCrudRequest"
                            }
                        }
                    }
                },
                "responses": {
                    "200": {
                        "description": "Successful response",
                        "content": {
                            "application/json": {
                                "schema": {
                                    "properties": {
                                        "message": {
                                            "type": "string",
                                            "example": "Customer updated successfully."
                                        },
                                        "data": {
                                            "$ref": "#/components/schemas/Customer"
                                        }
                                    },
                                    "type": "object"
                                }
                            }
                        }
                    },
                    "404": {
                        "description": "Not Found",
                        "content": {
                            "application/json": {
                                "schema": {
                                    "properties": {
                                        "message": {
                                            "type": "string",
                                            "example": "Customer not found, please insert another customer id."
                                        }
                                    },
                                    "type": "object"
                                }
                            }
                        }
                    },
                    "500": {
                        "description": "Unexpected error."
                    }
                }
            },
            "delete": {
                "tags": [
                    "Customer Controller"
                ],
                "summary": "Delete customer by ID",
                "description": "Delete a customer by ID and all associated reservations.",
                "operationId": "f619da8e413994902e456e7cec6454b1",
                "parameters": [
                    {
                        "name": "customer_id",
                        "in": "path",
                        "description": "ID of the customer to delete",
                        "required": true,
                        "schema": {
                            "type": "string",
                            "format": "uuid"
                        }
                    }
                ],
                "responses": {
                    "200": {
                        "description": "Successful response",
                        "content": {
                            "application/json": {
                                "schema": {
                                    "properties": {
                                        "message": {
                                            "type": "string",
                                            "example": "Customer deleted successfully."
                                        },
                                        "data": {
                                            "$ref": "#/components/schemas/Customer"
                                        }
                                    },
                                    "type": "object"
                                }
                            }
                        }
                    },
                    "404": {
                        "description": "Not Found",
                        "content": {
                            "application/json": {
                                "schema": {
                                    "properties": {
                                        "message": {
                                            "type": "string",
                                            "example": "Customer not found, please insert another customer id."
                                        }
                                    },
                                    "type": "object"
                                }
                            }
                        }
                    },
                    "500": {
                        "description": "Unexpected error."
                    }
                }
            }
        },
        "/reservations": {
            "get": {
                "tags": [
                    "Reservation Controller"
                ],
                "summary": "Returns a list of all reservation.",
                "description": "Method that returns the complete list of all reservation with pagination and filter",
                "operationId": "getAllReservation",
                "parameters": [
                    {
                        "name": "order_by",
                        "in": "query",
                        "description": "Column to order the results by",
                        "schema": {
                            "type": "string"
                        }
                    },
                    {
                        "name": "order_dir",
                        "in": "query",
                        "description": "Order direction (default: asc)",
                        "schema": {
                            "type": "string",
                            "enum": [
                                "asc",
                                "desc"
                            ]
                        }
                    },
                    {
                        "name": "filter_by",
                        "in": "query",
                        "description": "Filter by customer name",
                        "required": false,
                        "schema": {
                            "type": "string"
                        }
                    },
                    {
                        "name": "page",
                        "in": "query",
                        "description": "Page number",
                        "required": false,
                        "schema": {
                            "type": "integer",
                            "default": 0
                        }
                    },
                    {
                        "name": "page_length",
                        "in": "query",
                        "description": "Number of items per page",
                        "required": false,
                        "schema": {
                            "type": "integer",
                            "default": 10
                        }
                    }
                ],
                "responses": {
                    "200": {
                        "description": "Successful response",
                        "content": {
                            "application/json": {
                                "schema": {
                                    "properties": {
                                        "message": {
                                            "type": "string",
                                            "example": "Reservation found successfully."
                                        },
                                        "data": {
                                            "$ref": "#/components/schemas/Reservation"
                                        }
                                    },
                                    "type": "object"
                                }
                            }
                        }
                    },
                    "404": {
                        "description": "Not Found",
                        "content": {
                            "application/json": {
                                "schema": {
                                    "properties": {
                                        "message": {
                                            "type": "string",
                                            "example": "Reservation not found, please add a reservation to the list."
                                        }
                                    },
                                    "type": "object"
                                }
                            }
                        }
                    },
                    "500": {
                        "description": "Unexpected error"
                    }
                }
            },
            "post": {
                "tags": [
                    "Reservation Controller"
                ],
                "summary": "Create a new reservation.",
                "description": "Creates a new reservation for a restaurant.",
                "operationId": "storeReservation",
                "requestBody": {
                    "required": true,
                    "content": {
                        "application/json": {
                            "schema": {
                                "$ref": "#/components/schemas/ReservationCrudRequest"
                            }
                        }
                    }
                },
                "responses": {
                    "201": {
                        "description": "Successful response.",
                        "content": {
                            "application/json": {
                                "schema": {
                                    "properties": {
                                        "message": {
                                            "type": "string",
                                            "example": "Reservation created successfully."
                                        },
                                        "data": {
                                            "$ref": "#/components/schemas/Reservation"
                                        }
                                    },
                                    "type": "object"
                                }
                            }
                        }
                    },
                    "400": {
                        "description": "Bad Request",
                        "content": {
                            "application/json": {
                                "schema": {
                                    "properties": {
                                        "message": {
                                            "type": "string",
                                            "example": "The restaurant is full, please insert another time slot."
                                        }
                                    },
                                    "type": "object"
                                }
                            }
                        }
                    },
                    "404": {
                        "description": "Not Found",
                        "content": {
                            "application/json": {
                                "schema": {
                                    "properties": {
                                        "message": {
                                            "type": "string",
                                            "example": "The restaurant does not work in that time slot."
                                        }
                                    },
                                    "type": "object"
                                }
                            }
                        }
                    },
                    "500": {
                        "description": "Unexpected error"
                    }
                }
            }
        },
        "/restaurants/{restaurant_id}/reservation": {
            "get": {
                "tags": [
                    "Reservation Controller"
                ],
                "summary": "Get reservations for a specific restaurant",
                "description": "Retrieves a list of reservations for a specific restaurant.",
                "operationId": "getReservationsByRestaurantId",
                "parameters": [
                    {
                        "name": "restaurant_id",
                        "in": "path",
                        "description": "ID of the restaurant",
                        "required": true,
                        "schema": {
                            "type": "integer",
                            "example": 1
                        }
                    }
                ],
                "responses": {
                    "200": {
                        "description": "Successful response",
                        "content": {
                            "application/json": {
                                "schema": {
                                    "properties": {
                                        "message": {
                                            "type": "string",
                                            "example": "List of existing reservations for the selected restaurant."
                                        },
                                        "data": {
                                            "type": "array",
                                            "items": {
                                                "$ref": "#/components/schemas/Reservation"
                                            }
                                        }
                                    },
                                    "type": "object"
                                }
                            }
                        }
                    },
                    "404": {
                        "description": "Not Found",
                        "content": {
                            "application/json": {
                                "schema": {
                                    "properties": {
                                        "message": {
                                            "type": "string",
                                            "example": "No reservations found for this restaurant, please insert another restaurant id."
                                        }
                                    },
                                    "type": "object"
                                }
                            }
                        }
                    },
                    "500": {
                        "description": "Unexpected error"
                    }
                }
            }
        },
        "/customers/{customer_id}/reservation": {
            "get": {
                "tags": [
                    "Reservation Controller"
                ],
                "summary": "Get reservations by customer id",
                "description": "Method that retrieves a list of existing reservations for the selected customer.",
                "operationId": "7c3ddf43f4a6fd3c12bf6078aa9ac074",
                "parameters": [
                    {
                        "name": "customer_id",
                        "in": "path",
                        "description": "Customer UUID",
                        "required": true,
                        "schema": {
                            "type": "string"
                        }
                    }
                ],
                "responses": {
                    "200": {
                        "description": "Successful response",
                        "content": {
                            "application/json": {
                                "schema": {
                                    "properties": {
                                        "message": {
                                            "type": "string",
                                            "example": "List of existing reservations for the selected customer."
                                        },
                                        "data": {
                                            "type": "array",
                                            "items": {
                                                "$ref": "#/components/schemas/Reservation"
                                            }
                                        }
                                    },
                                    "type": "object"
                                }
                            }
                        }
                    },
                    "404": {
                        "description": "Not Found",
                        "content": {
                            "application/json": {
                                "schema": {
                                    "properties": {
                                        "message": {
                                            "type": "string",
                                            "example": "No reservations found for this customer, please insert another customer id."
                                        }
                                    },
                                    "type": "object"
                                }
                            }
                        }
                    },
                    "500": {
                        "description": "Unexpected error"
                    }
                }
            }
        },
        "/reservations/{reservation_id}": {
            "put": {
                "tags": [
                    "Reservation Controller"
                ],
                "summary": "Update reservation",
                "description": "Method to update an existing reservation.",
                "operationId": "f8aa3b204929f9abf096aa1de79898e8",
                "parameters": [
                    {
                        "name": "reservation_id",
                        "in": "path",
                        "description": "Reservation ID",
                        "required": true,
                        "schema": {
                            "type": "integer",
                            "format": "int64"
                        }
                    }
                ],
                "requestBody": {
                    "description": "Reservation data",
                    "required": true,
                    "content": {
                        "application/json": {
                            "schema": {
                                "$ref": "#/components/schemas/ReservationCrudRequest"
                            }
                        }
                    }
                },
                "responses": {
                    "200": {
                        "description": "Successful response",
                        "content": {
                            "application/json": {
                                "schema": {
                                    "properties": {
                                        "message": {
                                            "type": "string",
                                            "example": "Reservation updated successfully."
                                        },
                                        "data": {
                                            "$ref": "#/components/schemas/Reservation"
                                        }
                                    },
                                    "type": "object"
                                }
                            }
                        }
                    },
                    "400": {
                        "description": "Bad Request",
                        "content": {
                            "application/json": {
                                "schema": {
                                    "properties": {
                                        "message": {
                                            "type": "string",
                                            "example": "The restaurant does not work in that time slot."
                                        }
                                    },
                                    "type": "object"
                                }
                            }
                        }
                    },
                    "404": {
                        "description": "Not Found",
                        "content": {
                            "application/json": {
                                "schema": {
                                    "properties": {
                                        "message": {
                                            "type": "string",
                                            "example": "Reservation not found, please insert id."
                                        }
                                    },
                                    "type": "object"
                                }
                            }
                        }
                    },
                    "500": {
                        "description": "Unexpected error"
                    }
                }
            },
            "delete": {
                "tags": [
                    "Reservation Controller"
                ],
                "summary": "Delete reservation by ID",
                "description": "Delete a reservation by its ID.",
                "operationId": "d831882b2fd003728237ef451e1c4bab",
                "parameters": [
                    {
                        "name": "reservation_id",
                        "in": "path",
                        "description": "ID of the reservation to delete",
                        "required": true,
                        "schema": {
                            "type": "integer",
                            "format": "int64"
                        }
                    }
                ],
                "responses": {
                    "200": {
                        "description": "Successful response.",
                        "content": {
                            "application/json": {
                                "schema": {
                                    "properties": {
                                        "message": {
                                            "type": "string",
                                            "example": "Reservation deleted successfully."
                                        },
                                        "data": {
                                            "$ref": "#/components/schemas/Reservation"
                                        }
                                    },
                                    "type": "object"
                                }
                            }
                        }
                    },
                    "404": {
                        "description": "Not Found",
                        "content": {
                            "application/json": {
                                "schema": {
                                    "properties": {
                                        "message": {
                                            "type": "string",
                                            "example": "Reservation not found, please insert another reservation id."
                                        }
                                    },
                                    "type": "object"
                                }
                            }
                        }
                    },
                    "500": {
                        "description": "Unexpected error."
                    }
                }
            }
        },
        "/restaurants": {
            "get": {
                "tags": [
                    "Restaurant Controller"
                ],
                "summary": "Returns a list of all restaurant.",
                "description": "Method that returns the complete list of all restaurant with pagination and filter.",
                "operationId": "getAllRestaurant",
                "parameters": [
                    {
                        "name": "order_by",
                        "in": "query",
                        "description": "Column to order the results by",
                        "schema": {
                            "type": "string"
                        }
                    },
                    {
                        "name": "order_dir",
                        "in": "query",
                        "description": "Order direction (default: asc)",
                        "schema": {
                            "type": "string",
                            "enum": [
                                "asc",
                                "desc"
                            ]
                        }
                    },
                    {
                        "name": "filter_by",
                        "in": "query",
                        "description": "Filter by restaurant name",
                        "required": false,
                        "schema": {
                            "type": "string"
                        }
                    },
                    {
                        "name": "page",
                        "in": "query",
                        "description": "Page number",
                        "required": false,
                        "schema": {
                            "type": "integer",
                            "default": 0
                        }
                    },
                    {
                        "name": "page_length",
                        "in": "query",
                        "description": "Number of items per page",
                        "required": false,
                        "schema": {
                            "type": "integer",
                            "default": 10
                        }
                    }
                ],
                "responses": {
                    "200": {
                        "description": "Successful response",
                        "content": {
                            "application/json": {
                                "schema": {
                                    "properties": {
                                        "message": {
                                            "type": "string",
                                            "example": "Restaurants found successfully."
                                        },
                                        "data": {
                                            "type": "array",
                                            "items": {
                                                "$ref": "#/components/schemas/Restaurant"
                                            }
                                        }
                                    },
                                    "type": "object"
                                }
                            }
                        }
                    },
                    "404": {
                        "description": "Not Found",
                        "content": {
                            "application/json": {
                                "schema": {
                                    "properties": {
                                        "message": {
                                            "type": "string",
                                            "example": "Restaurants not found, please add a restaurant to the list."
                                        }
                                    },
                                    "type": "object"
                                }
                            }
                        }
                    },
                    "500": {
                        "description": "Unexpected error"
                    }
                }
            },
            "post": {
                "tags": [
                    "Restaurant Controller"
                ],
                "summary": "Create a new restaurant",
                "description": "Method to create a new restaurant.",
                "operationId": "5c363de6f03308e2e025c1df5242509d",
                "requestBody": {
                    "required": true,
                    "content": {
                        "application/json": {
                            "schema": {
                                "$ref": "#/components/schemas/RestaurantCrudRequest"
                            }
                        }
                    }
                },
                "responses": {
                    "201": {
                        "description": "Successful response.",
                        "content": {
                            "application/json": {
                                "schema": {
                                    "properties": {
                                        "message": {
                                            "type": "string",
                                            "example": "Restaurant created successfully."
                                        },
                                        "data": {
                                            "type": "array",
                                            "items": {
                                                "$ref": "#/components/schemas/Restaurant"
                                            }
                                        }
                                    },
                                    "type": "object"
                                }
                            }
                        }
                    },
                    "500": {
                        "description": "Unexpected error"
                    }
                }
            }
        },
        "/restaurants/{restaurant_id}": {
            "get": {
                "tags": [
                    "Restaurant Controller"
                ],
                "summary": "Get restaurant by id",
                "description": "Method that shows the selected restaurant.",
                "operationId": "dc58e600a39dccb407d7c9cacdc5312a",
                "parameters": [
                    {
                        "name": "restaurant_id",
                        "in": "path",
                        "description": "restaurant id",
                        "required": true,
                        "schema": {
                            "type": "integer",
                            "format": "int64"
                        }
                    }
                ],
                "responses": {
                    "200": {
                        "description": "Successful response.",
                        "content": {
                            "application/json": {
                                "schema": {
                                    "properties": {
                                        "message": {
                                            "type": "string",
                                            "example": "Selected restaurant information retrieved successfully."
                                        },
                                        "data": {
                                            "type": "array",
                                            "items": {
                                                "$ref": "#/components/schemas/Restaurant"
                                            }
                                        }
                                    },
                                    "type": "object"
                                }
                            }
                        }
                    },
                    "404": {
                        "description": "Not Found",
                        "content": {
                            "application/json": {
                                "schema": {
                                    "properties": {
                                        "message": {
                                            "type": "string",
                                            "example": "Restaurant not found, please select another id."
                                        }
                                    },
                                    "type": "object"
                                }
                            }
                        }
                    },
                    "500": {
                        "description": "Unexpected error"
                    }
                }
            },
            "put": {
                "tags": [
                    "Restaurant Controller"
                ],
                "summary": "Update restaurant by ID",
                "description": "Update a restaurant's information by its ID.",
                "operationId": "cbdb53fc8da7265637cd951ae6f3ef0c",
                "parameters": [
                    {
                        "name": "restaurant_id",
                        "in": "path",
                        "description": "ID of the restaurant to update",
                        "required": true,
                        "schema": {
                            "type": "integer",
                            "format": "int64"
                        }
                    }
                ],
                "requestBody": {
                    "required": true,
                    "content": {
                        "application/json": {
                            "schema": {
                                "$ref": "#/components/schemas/RestaurantCrudRequest"
                            }
                        }
                    }
                },
                "responses": {
                    "200": {
                        "description": "Successful response.",
                        "content": {
                            "application/json": {
                                "schema": {
                                    "properties": {
                                        "message": {
                                            "type": "string",
                                            "example": "Restaurant updated successfully."
                                        },
                                        "data": {
                                            "$ref": "#/components/schemas/Restaurant"
                                        }
                                    },
                                    "type": "object"
                                }
                            }
                        }
                    },
                    "400": {
                        "description": "Bad request. Invalid input data.",
                        "content": {
                            "application/json": {
                                "schema": {
                                    "properties": {
                                        "message": {
                                            "type": "string",
                                            "example": "There are reservations for those slots, please delete them before updating."
                                        }
                                    },
                                    "type": "object"
                                }
                            }
                        }
                    },
                    "404": {
                        "description": "Not Found",
                        "content": {
                            "application/json": {
                                "schema": {
                                    "properties": {
                                        "message": {
                                            "type": "string",
                                            "example": "Restaurant not found, please select another id."
                                        }
                                    },
                                    "type": "object"
                                }
                            }
                        }
                    },
                    "500": {
                        "description": "Unexpected error."
                    }
                }
            },
            "delete": {
                "tags": [
                    "Restaurant Controller"
                ],
                "summary": "Delete restaurant by ID",
                "description": "Delete a restaurant by ID, including associated reservations, types, and slots.",
                "operationId": "d0ce46f7ebe6dfd17bdeee0c73f472e5",
                "parameters": [
                    {
                        "name": "restaurant_id",
                        "in": "path",
                        "description": "ID of the restaurant to delete",
                        "required": true,
                        "schema": {
                            "type": "integer",
                            "format": "int64"
                        }
                    }
                ],
                "responses": {
                    "200": {
                        "description": "Successful response",
                        "content": {
                            "application/json": {
                                "schema": {
                                    "properties": {
                                        "message": {
                                            "type": "string",
                                            "example": "Restaurant deleted successfully."
                                        },
                                        "data": {
                                            "$ref": "#/components/schemas/Restaurant"
                                        }
                                    },
                                    "type": "object"
                                }
                            }
                        }
                    },
                    "404": {
                        "description": "Not Found",
                        "content": {
                            "application/json": {
                                "schema": {
                                    "properties": {
                                        "message": {
                                            "type": "string",
                                            "example": "Restaurant not found, please select another id."
                                        }
                                    },
                                    "type": "object"
                                }
                            }
                        }
                    },
                    "500": {
                        "description": "Unexpected error."
                    }
                }
            }
        }
    },
    "components": {
        "schemas": {
            "Customer": {
                "title": "Customer",
                "required": [
                    "id",
                    "name",
                    "surname",
                    "email"
                ],
                "properties": {
                    "id": {
                        "type": "string",
                        "format": "uuid",
                        "example": "123e4567-e89b-12d3-a456-426614174000"
                    },
                    "name": {
                        "type": "string",
                        "maxLength": 255,
                        "example": "Mario"
                    },
                    "surname": {
                        "type": "string",
                        "maxLength": 255,
                        "example": "Rossi"
                    },
                    "email": {
                        "type": "string",
                        "format": "email",
                        "example": "mario.rossi@test.com"
                    },
                    "created_at": {
                        "type": "string",
                        "format": "date-time"
                    },
                    "updated_at": {
                        "type": "string",
                        "format": "date-time"
                    },
                    "deleted_at": {
                        "type": "string",
                        "format": "date-time"
                    }
                },
                "type": "object"
            },
            "CustomerCrudRequest": {
                "title": "Customer CRUD Request",
                "required": [
                    "name",
                    "surname",
                    "email"
                ],
                "properties": {
                    "name": {
                        "type": "string",
                        "maxLength": 255,
                        "example": "Carlo"
                    },
                    "surname": {
                        "type": "string",
                        "maxLength": 255,
                        "example": "Bianchi"
                    },
                    "email": {
                        "type": "string",
                        "format": "email",
                        "maxLength": 255,
                        "example": "carlo53@test.it"
                    }
                },
                "type": "object"
            },
            "Reservation": {
                "properties": {
                    "id": {
                        "type": "integer"
                    },
                    "customer_id": {
                        "description": "The UUID of the customer who made the reservation.",
                        "type": "string"
                    },
                    "customer_number": {
                        "type": "integer"
                    },
                    "restaurant_id": {
                        "type": "integer"
                    },
                    "restaurant_slot_id": {
                        "type": "integer"
                    },
                    "created_at": {
                        "type": "string",
                        "format": "date-time"
                    },
                    "updated_at": {
                        "type": "string",
                        "format": "date-time"
                    },
                    "deleted_at": {
                        "type": "string",
                        "format": "date-time"
                    },
                    "restaurant": {
                        "$ref": "#/components/schemas/Restaurant"
                    },
                    "restaurant_slot": {
                        "$ref": "#/components/schemas/RestaurantSlot"
                    }
                },
                "type": "object"
            },
            "ReservationCrudRequest": {
                "required": [
                    "customer_name",
                    "customer_number",
                    "restaurant_id",
                    "restaurant_slot_id"
                ],
                "properties": {
                    "customer_name": {
                        "type": "string",
                        "maxLength": 255,
                        "example": "John Doe"
                    },
                    "customer_number": {
                        "type": "integer",
                        "minimum": 1,
                        "example": 4
                    },
                    "restaurant_id": {
                        "type": "integer",
                        "minimum": 1,
                        "example": 123
                    },
                    "restaurant_slot_id": {
                        "type": "integer",
                        "minimum": 1,
                        "example": 456
                    }
                },
                "type": "object"
            },
            "Restaurant": {
                "properties": {
                    "id": {
                        "type": "integer"
                    },
                    "name": {
                        "type": "string"
                    },
                    "address": {
                        "type": "string"
                    },
                    "covered": {
                        "type": "integer"
                    },
                    "created_at": {
                        "type": "string",
                        "format": "date-time"
                    },
                    "updated_at": {
                        "type": "string",
                        "format": "date-time"
                    },
                    "deleted_at": {
                        "type": "string",
                        "format": "date-time"
                    }
                },
                "type": "object"
            },
            "RestaurantSlot": {
                "properties": {
                    "id": {
                        "type": "integer"
                    },
                    "restaurant_id": {
                        "type": "integer"
                    },
                    "start": {
                        "type": "string",
                        "format": "date-time"
                    },
                    "end": {
                        "type": "string",
                        "format": "date-time"
                    },
                    "created_at": {
                        "type": "string",
                        "format": "date-time"
                    },
                    "updated_at": {
                        "type": "string",
                        "format": "date-time"
                    },
                    "deleted_at": {
                        "type": "string",
                        "format": "date-time"
                    },
                    "restaurant": {
                        "$ref": "#/components/schemas/Restaurant"
                    }
                },
                "type": "object"
            },
            "RestaurantType": {
                "properties": {
                    "id": {
                        "type": "integer"
                    },
                    "restaurant_id": {
                        "type": "integer"
                    },
                    "restaurant_type": {
                        "type": "integer"
                    },
                    "created_at": {
                        "type": "string",
                        "format": "date-time"
                    },
                    "updated_at": {
                        "type": "string",
                        "format": "date-time"
                    },
                    "restaurant": {
                        "$ref": "#/components/schemas/Restaurant"
                    },
                    "static_restaurant_type": {
                        "$ref": "#/components/schemas/StaticRestaurantType"
                    }
                },
                "type": "object"
            },
            "RestaurantCrudRequest": {
                "required": [
                    "name",
                    "address",
                    "covered"
                ],
                "properties": {
                    "name": {
                        "type": "string",
                        "maxLength": 255,
                        "example": "Osteria Romana"
                    },
                    "address": {
                        "type": "string",
                        "maxLength": 255,
                        "example": "Via Genova 44"
                    },
                    "covered": {
                        "type": "integer",
                        "minimum": 1,
                        "example": 15
                    },
                    "restaurant_type_id": {
                        "type": "array",
                        "items": {
                            "type": "integer"
                        }
                    },
                    "slots": {
                        "type": "array",
                        "items": {
                            "properties": {
                                "start": {
                                    "type": "string",
                                    "pattern": "^\\d{2}:\\d{2}$",
                                    "example": "13:00"
                                },
                                "end": {
                                    "type": "string",
                                    "pattern": "^\\d{2}:\\d{2}$",
                                    "example": "14:00"
                                }
                            },
                            "type": "object"
                        }
                    }
                },
                "type": "object"
            },
            "StaticRestaurantType": {
                "title": "Static Restaurant Type",
                "required": [
                    "id",
                    "cusine_type_description",
                    "created_at",
                    "updated_at"
                ],
                "properties": {
                    "id": {
                        "type": "integer",
                        "format": "int64",
                        "example": 1
                    },
                    "cusine_type_description": {
                        "type": "string",
                        "example": "Italiana"
                    },
                    "created_at": {
                        "type": "string",
                        "format": "date-time",
                        "example": "2023-09-01T13:34:36.000000Z"
                    },
                    "updated_at": {
                        "type": "string",
                        "format": "date-time",
                        "example": "2023-09-01T13:34:36.000000Z"
                    }
                },
                "type": "object"
            }
        },
        "securitySchemes": {
            "bearerAuth": {
                "type": "http",
                "name": "bearerAuth",
                "in": "header",
                "bearerFormat": "JWT",
                "scheme": "bearer"
            }
        }
    },
    "tags": [
        {
            "name": "Restaurant Reservation",
            "description": "API Endpoints of Restaurant Reservation"
        }
    ]
}